^C:\USERS\МАРИЯ\DESKTOP\C_LABS\BOMBA\BOMBA\DEBUG\BOMBA.EXE.EMBED.MANIFEST.RES|C:\USERS\МАРИЯ\DESKTOP\C_LABS\BOMBA\BOMBA\DEBUG\BOMBA.OBJ
C:\USERS\Мария\DESKTOP\C_LABS\BOMBA\DEBUG\BOMBA.ILK
C:\USERS\Мария\DESKTOP\C_LABS\BOMBA\DEBUG\BOMBA.EXE
C:\USERS\Мария\DESKTOP\C_LABS\BOMBA\BOMBA\DEBUG\BOMBA.EXE.INTERMEDIATE.MANIFEST
C:\USERS\МАРИЯ\DESKTOP\C_LABS\BOMBA\DEBUG\BOMBA.PDB
